<?xml version="1.0" encoding="utf-8"?>
<!-- Generator: Adobe Illustrator 16.0.0, SVG Export Plug-In . SVG Version: 6.00 Build 0)  -->
<!DOCTYPE svg PUBLIC "-//W3C//DTD SVG 1.1//EN" "http://www.w3.org/Graphics/SVG/1.1/DTD/svg11.dtd">
<svg version="1.1" id="Layer_1" xmlns="http://www.w3.org/2000/svg" xmlns:xlink="http://www.w3.org/1999/xlink" x="0px" y="0px"
	 width="283.181px" height="283.181px" viewBox="0 0 283.181 283.181" enable-background="new 0 0 283.181 283.181"
	 xml:space="preserve">
<g>
	<g>
		<g>
			<path fill="#FFFFFF" stroke="#FFFFFF" stroke-width="0.2888" d="M141.595,283.181C63.523,283.181,0,219.665,0,141.578
				C0,63.51,63.523,0,141.595,0c78.079,0,141.586,63.51,141.586,141.578C283.181,219.665,219.674,283.181,141.595,283.181z
				 M141.595,5.207C66.398,5.207,5.215,66.396,5.215,141.578c0,75.204,61.183,136.385,136.379,136.385
				c75.182,0,136.37-61.181,136.37-136.385C277.965,66.396,216.776,5.207,141.595,5.207z"/>
		</g>
	</g>
	<g>
		<g>
			<polygon fill="#FFFFFF" stroke="#FFFFFF" stroke-width="0.2888" points="147.774,168.577 128.885,126.024 112.387,168.461 
				107.508,166.568 128.561,112.448 152.562,166.456 			"/>
		</g>
	</g>
	<g>
		<g>
			<polygon fill="#FFFFFF" stroke="#FFFFFF" stroke-width="0.2888" points="170.859,168.577 151.949,126.024 135.451,168.461 
				130.581,166.568 151.625,112.448 175.611,166.456 			"/>
		</g>
	</g>
</g>
<g>
	<path fill="#FFFFFF" stroke="#FFFFFF" stroke-width="1.1553" d="M222.9,216.788c1.636-0.13,2.305-0.276,3.449-0.872
		c1.053-0.519,1.94-1.271,2.651-2.172c2.815-3.573,2.311-8.532-1.147-11.26c-3.501-2.762-8.513-2.107-11.339,1.489
		c-0.675,0.857-1.095,1.721-1.374,2.693c-0.358,1.216-0.375,1.989-0.193,3.893l-1.914-1.509c0.06-1.636,0.152-2.315,0.535-3.43
		c0.341-1.005,0.839-1.921,1.507-2.771c1.659-2.099,4.248-3.537,6.914-3.83c2.534-0.279,4.833,0.409,6.995,2.118
		c4.223,3.326,4.863,9.393,1.426,13.754c-0.654,0.832-1.49,1.557-2.5,2.18c-1.069,0.691-1.628,0.923-3.03,1.278L222.9,216.788z"/>
	<path fill="#FFFFFF" stroke="#FFFFFF" stroke-width="1.1553" d="M211.194,232.69l-11.33-14.546l1.297-1.01l11.328,14.543
		L211.194,232.69z"/>
	<path fill="#FFFFFF" stroke="#FFFFFF" stroke-width="1.1553" d="M191.715,244.707c-3.376,1.639-5.703,1.074-7.06-1.718
		c-0.971-2.006-0.847-3.695,0.318-5.047c0.509-0.566,0.953-0.919,2.096-1.531l-8.668-5.697l1.628-0.79l8.67,5.692l0.364-0.178
		l-3.891-8.014l1.479-0.717l8.039,16.555L191.715,244.707z M189.801,236.941l-0.436,0.178c-0.595,0.254-0.937,0.423-1.071,0.485
		c-2.556,1.241-3.199,2.598-2.209,4.626c0.841,1.737,2.436,2.205,4.305,1.297l2.106-1.021L189.801,236.941z"/>
	<path fill="#FFFFFF" stroke="#FFFFFF" stroke-width="1.1553" d="M153.235,251.941c1.32,0.982,1.925,1.314,3.169,1.619
		c1.133,0.294,2.304,0.316,3.429,0.104c4.479-0.846,7.362-4.91,6.551-9.243c-0.83-4.392-5.027-7.188-9.538-6.341
		c-1.067,0.2-1.957,0.575-2.807,1.128c-1.063,0.678-1.589,1.253-2.699,2.807l-0.454-2.397c1.12-1.198,1.638-1.652,2.66-2.233
		c0.921-0.53,1.899-0.895,2.959-1.098c2.632-0.493,5.532,0.13,7.734,1.655c2.097,1.465,3.379,3.498,3.881,6.209
		c1.001,5.288-2.514,10.284-7.979,11.305c-1.037,0.197-2.142,0.197-3.314,0c-1.264-0.178-1.833-0.372-3.128-1.026L153.235,251.941z"
		/>
	<path fill="#FFFFFF" stroke="#FFFFFF" stroke-width="1.1553" d="M133.234,256.263l1.322-11.818
		c0.206-1.839-0.014-3.043-0.792-4.017c-0.841-1.134-1.989-1.763-3.331-1.912c-2.827-0.316-4.852,1.376-5.19,4.408l-1.382,12.287
		l-1.631-0.184l1.388-12.405c0.412-3.616,3.409-6.146,6.849-5.757c3.771,0.42,6.201,3.531,5.769,7.354l-1.377,12.228
		L133.234,256.263z"/>
	<path fill="#FFFFFF" stroke="#FFFFFF" stroke-width="1.1553" d="M101.334,249.254l5.915-15.726l-4.069-1.531l0.581-1.537
		l5.602,2.109l-6.484,17.266L101.334,249.254z"/>
	<path fill="#FFFFFF" stroke="#FFFFFF" stroke-width="1.1553" d="M79.56,216.1l1.396,0.973l-1.351,6.2l6.25,4.361l5.398-3.388
		l1.42,0.989L75.261,236.22L79.56,216.1z M84.392,228.612l-5.151-3.588l-1.685,7.903L84.392,228.612z"/>
	<path fill="#FFFFFF" stroke="#FFFFFF" stroke-width="1.1553" d="M53.547,215.683c-2.418-2.875-2.436-5.272-0.051-7.275
		c1.707-1.436,3.385-1.729,4.976-0.919c0.683,0.35,1.131,0.699,2.006,1.652l3.416-9.81l1.173,1.396l-3.42,9.808l0.264,0.316
		l6.84-5.737l1.052,1.255l-14.116,11.858L53.547,215.683z M60.627,211.922l-0.272-0.375c-0.396-0.511-0.646-0.807-0.737-0.919
		c-1.831-2.181-3.303-2.477-5.038-1.024c-1.482,1.25-1.544,2.911-0.202,4.511l1.508,1.794L60.627,211.922z"/>
	<path fill="#FFFFFF" stroke="#FFFFFF" stroke-width="1.1553" d="M56.235,89.883L46.43,75.429l17.989,7.062l-0.808,1.332
		l-13.05-5.131l-0.034,0.046l8.947,13.109l-15.844-1.78l-0.028,0.048l10.639,9.162l-0.816,1.356L38.759,87.971L56.235,89.883z"/>
	<path fill="#FFFFFF" stroke="#FFFFFF" stroke-width="1.1553" d="M62.751,57.765l7.746,9.012c1.204,1.403,2.234,2.058,3.475,2.152
		c1.399,0.152,2.641-0.254,3.667-1.131c2.154-1.859,2.291-4.485,0.308-6.8l-8.049-9.368l1.248-1.069l8.121,9.458
		c2.37,2.756,2.182,6.671-0.45,8.927c-2.867,2.465-6.793,2.127-9.295-0.788l-8.011-9.321L62.751,57.765z"/>
	<path fill="#FFFFFF" stroke="#FFFFFF" stroke-width="1.1553" d="M90.794,38.447c1.396-0.632,3.337-1.254,4.501-1.46
		c1.111-0.179,2.26-0.151,3.338,0.104c2.557,0.584,4.601,2.462,5.908,5.352c1.188,2.626,1.336,4.884,0.479,7.177
		c-0.41,1.022-0.931,1.802-1.627,2.539c-0.819,0.822-2.601,2.017-3.991,2.646l-3.326,1.505L88.47,39.5L90.794,38.447z
		 M96.901,54.131l1.389-0.629c5.084-2.302,6.64-5.781,4.607-10.279c-2.09-4.603-5.854-5.799-11.051-3.451l-1.196,0.548
		L96.901,54.131z"/>
	<path fill="#FFFFFF" stroke="#FFFFFF" stroke-width="1.1553" d="M144.274,26.833l-0.058,14.57
		c-0.006,2.813-1.243,4.362-3.448,4.355c-1.201-0.003-2.197-0.597-3.394-2.04l1.239-0.99c1.016,1.059,1.482,1.354,2.219,1.359
		c1.204,0.006,1.733-0.726,1.739-2.486l0.055-14.777L144.274,26.833z"/>
	<path fill="#FFFFFF" stroke="#FFFFFF" stroke-width="1.1553" d="M172.296,30.979l-0.373,1.602l-7.001-1.639l-1.349,5.774
		l6.995,1.636l-0.366,1.602l-7.004-1.639l-1.724,7.373l7.061,1.647l-0.384,1.599l-8.657-2.025l4.199-17.942L172.296,30.979z"/>
	<path fill="#FFFFFF" stroke="#FFFFFF" stroke-width="1.1553" d="M193.759,60.374l-1.505-0.805l0.609-6.328l-6.731-3.597
		l-4.969,4.007l-1.532-0.816l16.027-12.992L193.759,60.374z M187.474,48.496l5.55,2.959l0.741-8.066L187.474,48.496z"/>
	<path fill="#FFFFFF" stroke="#FFFFFF" stroke-width="1.1553" d="M217.82,77.382l10.917-10.525l1.142,1.189l-13.757,13.251
		l0.785-21.849l-10.86,10.459l-1.14-1.185l13.751-13.254L217.82,77.382z"/>
	<path fill="#FFFFFF" stroke="#FFFFFF" stroke-width="1.1553" d="M241.978,93.739c0.789-2.014,0.851-2.937,0.264-4.09
		c-0.69-1.36-2.106-1.933-3.314-1.323c-0.761,0.387-1.291,1.092-1.618,2.011c-0.195,0.66-0.275,1.464-0.33,2.973
		c-0.054,2.039-0.102,2.462-0.511,3.926c-0.623,1.763-1.378,2.742-2.635,3.382c-2.547,1.289-5.811,0.115-7.198-2.612
		c-0.629-1.23-0.803-2.491-0.547-3.74c0.214-1.066,0.419-1.636,1.255-3.111l1.495,1.058c-1.199,2.056-1.353,3.447-0.604,4.919
		c0.97,1.91,3.026,2.713,4.755,1.833c1.574-0.795,2.13-2.305,2.226-5.878c0.054-1.839,0.076-2.118,0.412-3.342
		c0.53-1.422,1.403-2.494,2.556-3.077c2.048-1.038,4.55-0.071,5.718,2.234c0.485,0.948,0.62,1.997,0.46,3.232
		c-0.11,0.75-0.266,1.159-0.66,2.144L241.978,93.739z"/>
</g>
</svg>
